INFO     root:conftest.py:26 =================单个函数用例开始执行=================
INFO     root:test_01_register.py:30 测试数据：{'username': None, 'password1': None, 'password2': None}
INFO     root:test_01_register.py:31 开始执行第 5 条用例：用户名、密码和确认密码都为空！
INFO     root:test_01_register.py:36 预期结果为：{'code': 0, 'msg': '所有参数不能为空'}
INFO     root:test_01_register.py:37 实际运行结果为：{'code': 0, 'msg': '所有参数不能为空'}
INFO     root:test_01_register.py:46 断言成功，第 5 用例执行通过！
INFO     root:conftest.py:28 =================单个函数用例结束执行=================