INFO     root:conftest.py:18 *************************类下的用例开始执行*************************
INFO     root:conftest.py:26 =================单个函数用例开始执行=================
DEBUG    urllib3.connectionpool:connectionpool.py:206 Starting new HTTP connection (1): 127.0.0.1:51076
DEBUG    urllib3.connectionpool:connectionpool.py:396 http://127.0.0.1:51076 "POST http://127.0.0.1:8000/user/login/ HTTP/1.1" 503 None
INFO     root:conftest.py:28 =================单个函数用例结束执行=================
INFO     root:conftest.py:20 *************************类下的用例结束*************************