INFO     root:conftest.py:26 =================单个函数用例开始执行=================
INFO     root:test_01_register.py:32 开始执行第 10 条用例：账号小于6位！
INFO     root:test_01_register.py:33 测试数据：{'username': 'pyt', 'password1': '123456', 'password2': '123456'}
INFO     root:test_01_register.py:40 预期结果为：{'code': 0, 'msg': '账号和密码必须在6-18位之间'}
DEBUG    urllib3.connectionpool:connectionpool.py:206 Starting new HTTP connection (1): 127.0.0.1:51076
DEBUG    urllib3.connectionpool:connectionpool.py:396 http://127.0.0.1:51076 "POST http://127.0.0.1:8000/user/login/ HTTP/1.1" 503 None
INFO     root:test_01_register.py:61 实际运行结果为：{'code': 503, 'msg': 'Service Unavailable'}
ERROR    root:test_01_register.py:69 断言失败，第 10 用例执行不通过！！
Traceback (most recent call last):
  File "D:\project\Auto_Api\TestCase\test_01_register.py", line 66, in test_register
    assert eval(case["check"]) == login_res
AssertionError: assert {'code': 0, '...密码必须在6-18位之间'} == <Response [503]>
  Use -v to get the full diff
INFO     root:conftest.py:28 =================单个函数用例结束执行=================